20000001= { name="Mikhailovich" culture=ruski }
20000002= { name="Fyodyorov" culture=ruski }
20000003= { name="Lukinich" culture=ruski }
20000004= { name="Andreievich" culture=ruski }
20000005= { name="Dobrynich" culture=ruski }
20000006= { name="Petrilov" culture=ruski }
20000007= { name="Borisov" culture=ruski }
20000008= { name="Novyy Kievskiy" culture=ruski }
20000009= { name="Kholmsky" culture=ruski }
20000010= { name="Izyaslavich" culture=ruski }
20000011= { name="Lyubechanin" culture=ruski }
20000012= { name="Rurikid" culture=ruski }
20000013= { name="Ivannikov" culture=ruski }
20000014= { name="Lyakhovich" culture=ruski }
20000015= { name="Mikulinich" culture=ruski }
20000016= { name="Miroslavich" culture=ruski }
20000017= { name="Ivankovich" culture=ruski }
20000018= { name="Zakharyinich" culture=ruski }
20000019= { name="Stepanovich" culture=ruski }
20000020= { name="Nezdinich" culture=ruski }
20000021= { name="Feofilaktovich" culture=ruski }
20000023= { name="Klimovich" culture=ruski }
20000024= { name="Konstantinov" culture=ruski }
20000025= { name="Boryatinskiy" culture=ruski }
20000026= { name="Vyshatich" culture=ruski }
20000027= { name="Novotorgsky" culture=ruski }
20000028= { name="Romanov" culture=ruski }
20000029= { name="Okolnichy" culture=ruski }
20000030= { name="Yenikeyev" culture=ruski }
20000031= { name="Balashov" culture=ruski }
20000070= { name="Romanov" culture=ruski used_for_random=no}
20000090= { name="Olegovich" culture=ruski used_for_random=no}

20000071= { name="Kralovic" culture=slav used_for_random=no}
20000032= { name="Mojmirid" culture=slav }
20000033= { name="Rajhradsky" culture=slav }
20000034= { name="Kopciansky" culture=slav }
20000035= { name="Jasenovsky" culture=slav }
20000036= { name="Detvansky" culture=slav }
20000037= { name="Majcichovsky" culture=slav }
20000038= { name="Pobedimsky" culture=slav }
20000039= { name="Divinsky" culture=slav }
20000040= { name="Ducovsky" culture=slav }
20000041= { name="Bojnicky" culture=slav }
20000042= { name="Devinsky" culture=slav }
20000043= { name="Ostrihomsky" culture=slav }
20000044= { name="Kocelid" culture=slav }
20000045= { name="Rastislavid" culture=slav }
20000046= { name="Slavomirid" culture=slav }
20000047= { name="Braslavid" culture=slav }
20000048= { name="Beckovsky" culture=slav }
20000049= { name="Zemplinsky" culture=slav }
20000050= { name="Tematinsky" culture=slav }
20000051= { name="Kostolansky" culture=slav }

20000052= { name="Radziwill" culture=slav }
20000053= { name="Rzewuski" culture=slav }
20000054= { name="Sanguszko" culture=slav }
20000055= { name="Sapieha" culture=slav }
20000056= { name="Sobieski" culture=slav }
20000057= { name="Wisniowecki" culture=slav }
20000058= { name="Zamojski" culture=slav }
20000059= { name="Zbaraski" culture=slav }
20000060= { name="Sologashvili" culture=slav }
20000061= { name="Ostrogski" culture=slav }
20000062= { name="Potocki" culture=slav }
20000063= { name="Ostrihomsky" culture=slav }
20000064= { name="Olelkowicz" culture=slav }
20000065= { name="Korecki" culture=slav }
20000066= { name="Jablonowski" culture=slav }
20000067= { name="Jablonowski" culture=slav }
20000068= { name="Leszczynski" culture=slav }
20000069= { name="Lubomirski" culture=slav }

20000072= { name="Capek" culture=czech }
20000073= { name="Moravec" culture=czech }
20000074= { name="Mrazek" culture=czech }
20000075= { name="Marek" culture=czech }
20000076= { name="Hosek" culture=czech }
20000077= { name="Komarek" culture=czech }
20000078= { name="Klimes" culture=czech }
20000079= { name="Kozak" culture=czech }
20000080= { name="Kucaj" culture=czech }
20000081= { name="Polák" culture=czech }
20000082= { name="Zak" culture=czech }
20000083= { name="Cermak" culture=czech }
20000084= { name="Ptacek" culture=czech }
20000085= { name="Korecki" culture=czech }
20000086= { name="Kovař" culture=czech }
20000087= { name="Petr" culture=czech }
20000088= { name="Kohout" culture=czech }
20000089= { name="Kaspar" culture=czech }
20000108= { name="Praha" culture=czech used_for_random=no}